Landscape Ecology and Conservation — GIS and Spatial Methods in R
…
# Calculate patch areas at patch, class and landscape scale.
lsm <- sample_lsm(sites_forest_utm23S, sites_utm23S, 
                  shape = "circle", size = 600, 
                  plot_id = sites_utm23S$Site, 
                  what = c('lsm_p_area',
                           'lsm_c_np', 'lsm_l_np', 
                           'lsm_c_area_mn', 'lsm_l_area_mn',
                           'lsm_c_pland'))

# Use Alce as an example
alce <- subset(lsm, plot_id=='Alce')
print(alce, n=21)

# A tibble: 22 x 8
   layer level     class    id metric   value plot_id percentage_inside
   <int> <chr>     <int> <int> <chr>    <dbl> <fct>               <dbl>
 1     1 class         0    NA area_mn 19.1   Alce                 100.
 2     1 class         1    NA area_mn  3.65  Alce                 100.
 3     1 class         0    NA np       4     Alce                 100.
 4     1 class         1    NA np      10     Alce                 100.
 5     1 class         0    NA pland   67.7   Alce                 100.
 6     1 class         1    NA pland   32.3   Alce                 100.
 7     1 landscape    NA    NA area_mn  8.08  Alce                 100.
 8     1 landscape    NA    NA np      14     Alce                 100.
 9     1 patch         0     1 area    76.0   Alce                 100.
10     1 patch         0     2 area     0.09  Alce                 100.
11     1 patch         0     3 area     0.09  Alce                 100.
12     1 patch         0     4 area     0.450 Alce                 100.
13     1 patch         1     5 area     1.08  Alce                 100.
14     1 patch         1     6 area    27.5   Alce                 100.
15     1 patch         1     7 area     0.63  Alce                 100.
16     1 patch         1     8 area     0.27  Alce                 100.
17     1 patch         1     9 area     2.52  Alce                 100.
18     1 patch         1    10 area     2.07  Alce                 100.
19     1 patch         1    11 area     0.36  Alce                 100.
20     1 patch         1    12 area     1.35  Alce                 100.
21     1 patch         1    13 area     0.27  Alce                 100.
# … with 1 more row
…
