Landscape Ecology and Conservation - Practical session
…
Extracting landscape metrics

You can now explore the functions in the package landscapemetrics to measure different landscape metrics. You can also look at the complete set of 132 landscape metrics that the package will calculate:

lsm_abbreviations_names

## # A tibble: 132 x 5
##    metric name                            type               level function_name
##    <chr>  <chr>                           <chr>              <chr> <chr>        
##  1 area   patch area                      area and edge met patch lsm_p_area   
##  2 cai    core area index                 core area metric   patch lsm_p_cai    
##  3 circle related circumscribing circle   shape metric       patch lsm_p_circle 
##  4 contig contiguity index                shape metric       patch lsm_p_contig 
##  5 core   core area                       core area metric   patch lsm_p_core   
##  6 enn    euclidean nearest neighbor dis aggregation metric patch lsm_p_enn    
##  7 frac   fractal dimension index         shape metric       patch lsm_p_frac   
##  8 gyrate radius of gyration              area and edge met patch lsm_p_gyrate 
##  9 ncore  number of core areas            core area metric   patch lsm_p_ncore  
## 10 para   perimeter-area ratio            shape metric       patch lsm_p_para   
## #  with 122 more rows
…
# Calculate patch areas at patch, class and landscape scale.
lsm <- sample_lsm(sites_forest_utm23S, sites_utm23S, 
                  shape = "circle", size = 600, 
                  plot_id = sites_utm23S$Site, 
                  what = c('lsm_p_area',
                           'lsm_c_np', 'lsm_l_np', 
                           'lsm_c_area_mn', 'lsm_l_area_mn',
                           'lsm_c_pland'))

# Use Alce as an example
alce <- subset(lsm, plot_id=='Alce')
print(alce)

## # A tibble: 21 x 8
##    layer level     class    id metric   value plot_id percentage_inside
##    <int> <chr>     <int> <int> <chr>    <dbl> <fct>               <dbl>
##  1     1 class         0    NA area_mn 25.5   Alce                 101.
##  2     1 class         1    NA area_mn  3.70  Alce                 101.
##  3     1 class         0    NA np       3     Alce                 101.
##  4     1 class         1    NA np      10     Alce                 101.
##  5     1 class         0    NA pland   67.4   Alce                 101.
##  6     1 class         1    NA pland   32.6   Alce                 101.
##  7     1 landscape    NA    NA area_mn  8.74  Alce                 101.
##  8     1 landscape    NA    NA np      13     Alce                 101.
##  9     1 patch         0     1 area    75.5   Alce                 101.
## 10     1 patch         0     2 area     0.246 Alce                 101.
## #  with 11 more rows
…
